-- Merging decision tree log ---
manifest
ADDED from /Users/teerifle/Desktop/kenny/android/android-kotlin-fundamentals-starter-apps/DessertClicker-Starter/app/src/main/AndroidManifest.xml:17:1-36:12
INJECTED from /Users/teerifle/Desktop/kenny/android/android-kotlin-fundamentals-starter-apps/DessertClicker-Starter/app/src/main/AndroidManifest.xml:17:1-36:12
INJECTED from /Users/teerifle/Desktop/kenny/android/android-kotlin-fundamentals-starter-apps/DessertClicker-Starter/app/src/main/AndroidManifest.xml:17:1-36:12
INJECTED from /Users/teerifle/Desktop/kenny/android/android-kotlin-fundamentals-starter-apps/DessertClicker-Starter/app/src/main/AndroidManifest.xml:17:1-36:12
MERGED from [androidx.databinding:databinding-adapters:3.5.0] /Users/teerifle/.gradle/caches/transforms-2/files-2.1/0b274312cb4503747b07f053d78a07f0/databinding-adapters-3.5.0/AndroidManifest.xml:17:1-24:12
MERGED from [androidx.databinding:databinding-runtime:3.5.0] /Users/teerifle/.gradle/caches/transforms-2/files-2.1/3c7e82ee7e533b334e790ceea06e7a5f/databinding-runtime-3.5.0/AndroidManifest.xml:17:1-24:12
MERGED from [androidx.constraintlayout:constraintlayout:2.0.0-alpha2] /Users/teerifle/.gradle/caches/transforms-2/files-2.1/53aaa976d5272f870fc6b0e9b1ee7d23/constraintlayout-2.0.0-alpha2/AndroidManifest.xml:2:1-11:12
MERGED from [androidx.appcompat:appcompat:1.0.0] /Users/teerifle/.gradle/caches/transforms-2/files-2.1/3f4ae065ee31123b41c261c10f189923/appcompat-1.0.0/AndroidManifest.xml:17:1-22:12
MERGED from [androidx.fragment:fragment:1.0.0] /Users/teerifle/.gradle/caches/transforms-2/files-2.1/66f1e158e031e3f7e5d634069b8077c5/fragment-1.0.0/AndroidManifest.xml:17:1-22:12
MERGED from [androidx.vectordrawable:vectordrawable-animated:1.0.0] /Users/teerifle/.gradle/caches/transforms-2/files-2.1/efbe69a8ba6a33b526734fa3c1d9ea84/vectordrawable-animated-1.0.0/AndroidManifest.xml:17:1-22:12
MERGED from [androidx.recyclerview:recyclerview:1.0.0-rc01] /Users/teerifle/.gradle/caches/transforms-2/files-2.1/c885dff16d6e1f0cf240a581bfeda89b/recyclerview-1.0.0-rc01/AndroidManifest.xml:17:1-22:12
MERGED from [androidx.legacy:legacy-support-core-ui:1.0.0] /Users/teerifle/.gradle/caches/transforms-2/files-2.1/611fe6fb14b620fb45ec15e02cca9f44/legacy-support-core-ui-1.0.0/AndroidManifest.xml:17:1-22:12
MERGED from [androidx.legacy:legacy-support-core-utils:1.0.0] /Users/teerifle/.gradle/caches/transforms-2/files-2.1/0200fe1a5c32e074dc192accde9940d0/legacy-support-core-utils-1.0.0/AndroidManifest.xml:17:1-22:12
MERGED from [androidx.vectordrawable:vectordrawable:1.0.0] /Users/teerifle/.gradle/caches/transforms-2/files-2.1/53fd6d79f1f039dfeda5edd6630645b2/vectordrawable-1.0.0/AndroidManifest.xml:17:1-22:12
MERGED from [androidx.loader:loader:1.0.0] /Users/teerifle/.gradle/caches/transforms-2/files-2.1/f72268e600cc17800e60910ca3d2bd65/loader-1.0.0/AndroidManifest.xml:17:1-22:12
MERGED from [androidx.viewpager:viewpager:1.0.0] /Users/teerifle/.gradle/caches/transforms-2/files-2.1/1eee9a5234acb0d9def9aac10c7f3af9/viewpager-1.0.0/AndroidManifest.xml:17:1-22:12
MERGED from [androidx.coordinatorlayout:coordinatorlayout:1.0.0] /Users/teerifle/.gradle/caches/transforms-2/files-2.1/28f750dfd2d0af88eba44adf90bcde05/coordinatorlayout-1.0.0/AndroidManifest.xml:17:1-22:12
MERGED from [androidx.drawerlayout:drawerlayout:1.0.0] /Users/teerifle/.gradle/caches/transforms-2/files-2.1/7c0ef516cebd892c6cf7acbdb6e44f0c/drawerlayout-1.0.0/AndroidManifest.xml:17:1-22:12
MERGED from [androidx.slidingpanelayout:slidingpanelayout:1.0.0] /Users/teerifle/.gradle/caches/transforms-2/files-2.1/279d580201ef799bf5af3dde439af07e/slidingpanelayout-1.0.0/AndroidManifest.xml:17:1-22:12
MERGED from [androidx.customview:customview:1.0.0] /Users/teerifle/.gradle/caches/transforms-2/files-2.1/3e0fe89101d18f5f11be922aaf11740f/customview-1.0.0/AndroidManifest.xml:17:1-22:12
MERGED from [androidx.swiperefreshlayout:swiperefreshlayout:1.0.0] /Users/teerifle/.gradle/caches/transforms-2/files-2.1/d84aa3513a0a69fa0544e77f36fcdb30/swiperefreshlayout-1.0.0/AndroidManifest.xml:17:1-22:12
MERGED from [androidx.asynclayoutinflater:asynclayoutinflater:1.0.0] /Users/teerifle/.gradle/caches/transforms-2/files-2.1/3671a51d09c6edb4d6fc7517ffd6f2e8/asynclayoutinflater-1.0.0/AndroidManifest.xml:17:1-22:12
MERGED from [androidx.core:core:1.0.0] /Users/teerifle/.gradle/caches/transforms-2/files-2.1/45a69bab8db1875a48488dcfd567eca0/core-1.0.0/AndroidManifest.xml:17:1-24:12
MERGED from [androidx.lifecycle:lifecycle-runtime:2.0.0] /Users/teerifle/.gradle/caches/transforms-2/files-2.1/1991dd480a20514c97a738230755be71/lifecycle-runtime-2.0.0/AndroidManifest.xml:17:1-22:12
MERGED from [androidx.versionedparcelable:versionedparcelable:1.0.0] /Users/teerifle/.gradle/caches/transforms-2/files-2.1/eae1e1bf7b41c88eb39a59daeaddd1fa/versionedparcelable-1.0.0/AndroidManifest.xml:17:1-25:12
MERGED from [androidx.cursoradapter:cursoradapter:1.0.0] /Users/teerifle/.gradle/caches/transforms-2/files-2.1/ce52a52bbbff4a5f9106c07425002133/cursoradapter-1.0.0/AndroidManifest.xml:17:1-22:12
MERGED from [androidx.lifecycle:lifecycle-livedata:2.0.0] /Users/teerifle/.gradle/caches/transforms-2/files-2.1/47e97ba2f7d01befdf0f7bbb6dc3a177/lifecycle-livedata-2.0.0/AndroidManifest.xml:17:1-22:12
MERGED from [androidx.lifecycle:lifecycle-livedata-core:2.0.0] /Users/teerifle/.gradle/caches/transforms-2/files-2.1/6b021111af4124dd47658f28597f8e15/lifecycle-livedata-core-2.0.0/AndroidManifest.xml:17:1-22:12
MERGED from [androidx.arch.core:core-runtime:2.0.0] /Users/teerifle/.gradle/caches/transforms-2/files-2.1/b5789c4585f4a680a573a11621b1e764/core-runtime-2.0.0/AndroidManifest.xml:17:1-22:12
MERGED from [androidx.documentfile:documentfile:1.0.0] /Users/teerifle/.gradle/caches/transforms-2/files-2.1/08e5727ebd6e02f9ebac497d766f3908/documentfile-1.0.0/AndroidManifest.xml:17:1-22:12
MERGED from [androidx.localbroadcastmanager:localbroadcastmanager:1.0.0] /Users/teerifle/.gradle/caches/transforms-2/files-2.1/f9ccba07f2d8cda138a5f81f0c75d7fb/localbroadcastmanager-1.0.0/AndroidManifest.xml:17:1-22:12
MERGED from [androidx.print:print:1.0.0] /Users/teerifle/.gradle/caches/transforms-2/files-2.1/9a1242e0c07e4512a7b7145af59ff477/print-1.0.0/AndroidManifest.xml:17:1-22:12
MERGED from [androidx.lifecycle:lifecycle-viewmodel:2.0.0] /Users/teerifle/.gradle/caches/transforms-2/files-2.1/e7a48ed8cc39e1addffc3283ebe70c3f/lifecycle-viewmodel-2.0.0/AndroidManifest.xml:17:1-22:12
MERGED from [androidx.interpolator:interpolator:1.0.0] /Users/teerifle/.gradle/caches/transforms-2/files-2.1/df0c84d35d0843ea27b512781e435977/interpolator-1.0.0/AndroidManifest.xml:17:1-22:12
INJECTED from /Users/teerifle/Desktop/kenny/android/android-kotlin-fundamentals-starter-apps/DessertClicker-Starter/app/src/main/AndroidManifest.xml:17:1-36:12
INJECTED from /Users/teerifle/Desktop/kenny/android/android-kotlin-fundamentals-starter-apps/DessertClicker-Starter/app/src/main/AndroidManifest.xml:17:1-36:12
INJECTED from /Users/teerifle/Desktop/kenny/android/android-kotlin-fundamentals-starter-apps/DessertClicker-Starter/app/src/main/AndroidManifest.xml:17:1-36:12
	package
		ADDED from /Users/teerifle/Desktop/kenny/android/android-kotlin-fundamentals-starter-apps/DessertClicker-Starter/app/src/main/AndroidManifest.xml:18:5-49
		INJECTED from /Users/teerifle/Desktop/kenny/android/android-kotlin-fundamentals-starter-apps/DessertClicker-Starter/app/src/main/AndroidManifest.xml
		INJECTED from /Users/teerifle/Desktop/kenny/android/android-kotlin-fundamentals-starter-apps/DessertClicker-Starter/app/src/main/AndroidManifest.xml
	android:versionName
		INJECTED from /Users/teerifle/Desktop/kenny/android/android-kotlin-fundamentals-starter-apps/DessertClicker-Starter/app/src/main/AndroidManifest.xml
		ADDED from /Users/teerifle/Desktop/kenny/android/android-kotlin-fundamentals-starter-apps/DessertClicker-Starter/app/src/main/AndroidManifest.xml:17:1-36:12
		INJECTED from /Users/teerifle/Desktop/kenny/android/android-kotlin-fundamentals-starter-apps/DessertClicker-Starter/app/src/main/AndroidManifest.xml
	android:versionCode
		INJECTED from /Users/teerifle/Desktop/kenny/android/android-kotlin-fundamentals-starter-apps/DessertClicker-Starter/app/src/main/AndroidManifest.xml
		ADDED from /Users/teerifle/Desktop/kenny/android/android-kotlin-fundamentals-starter-apps/DessertClicker-Starter/app/src/main/AndroidManifest.xml:17:1-36:12
		INJECTED from /Users/teerifle/Desktop/kenny/android/android-kotlin-fundamentals-starter-apps/DessertClicker-Starter/app/src/main/AndroidManifest.xml
	xmlns:android
		ADDED from /Users/teerifle/Desktop/kenny/android/android-kotlin-fundamentals-starter-apps/DessertClicker-Starter/app/src/main/AndroidManifest.xml:17:11-69
application
ADDED from /Users/teerifle/Desktop/kenny/android/android-kotlin-fundamentals-starter-apps/DessertClicker-Starter/app/src/main/AndroidManifest.xml:20:5-34:19
MERGED from [androidx.constraintlayout:constraintlayout:2.0.0-alpha2] /Users/teerifle/.gradle/caches/transforms-2/files-2.1/53aaa976d5272f870fc6b0e9b1ee7d23/constraintlayout-2.0.0-alpha2/AndroidManifest.xml:9:5-20
MERGED from [androidx.constraintlayout:constraintlayout:2.0.0-alpha2] /Users/teerifle/.gradle/caches/transforms-2/files-2.1/53aaa976d5272f870fc6b0e9b1ee7d23/constraintlayout-2.0.0-alpha2/AndroidManifest.xml:9:5-20
MERGED from [androidx.core:core:1.0.0] /Users/teerifle/.gradle/caches/transforms-2/files-2.1/45a69bab8db1875a48488dcfd567eca0/core-1.0.0/AndroidManifest.xml:22:5-89
MERGED from [androidx.core:core:1.0.0] /Users/teerifle/.gradle/caches/transforms-2/files-2.1/45a69bab8db1875a48488dcfd567eca0/core-1.0.0/AndroidManifest.xml:22:5-89
MERGED from [androidx.versionedparcelable:versionedparcelable:1.0.0] /Users/teerifle/.gradle/caches/transforms-2/files-2.1/eae1e1bf7b41c88eb39a59daeaddd1fa/versionedparcelable-1.0.0/AndroidManifest.xml:22:5-23:19
MERGED from [androidx.versionedparcelable:versionedparcelable:1.0.0] /Users/teerifle/.gradle/caches/transforms-2/files-2.1/eae1e1bf7b41c88eb39a59daeaddd1fa/versionedparcelable-1.0.0/AndroidManifest.xml:22:5-23:19
	android:appComponentFactory
		ADDED from [androidx.core:core:1.0.0] /Users/teerifle/.gradle/caches/transforms-2/files-2.1/45a69bab8db1875a48488dcfd567eca0/core-1.0.0/AndroidManifest.xml:22:18-86
	android:supportsRtl
		ADDED from /Users/teerifle/Desktop/kenny/android/android-kotlin-fundamentals-starter-apps/DessertClicker-Starter/app/src/main/AndroidManifest.xml:25:9-35
	android:label
		ADDED from /Users/teerifle/Desktop/kenny/android/android-kotlin-fundamentals-starter-apps/DessertClicker-Starter/app/src/main/AndroidManifest.xml:23:9-41
	android:roundIcon
		ADDED from /Users/teerifle/Desktop/kenny/android/android-kotlin-fundamentals-starter-apps/DessertClicker-Starter/app/src/main/AndroidManifest.xml:24:9-61
	android:icon
		ADDED from /Users/teerifle/Desktop/kenny/android/android-kotlin-fundamentals-starter-apps/DessertClicker-Starter/app/src/main/AndroidManifest.xml:22:9-50
	android:allowBackup
		ADDED from /Users/teerifle/Desktop/kenny/android/android-kotlin-fundamentals-starter-apps/DessertClicker-Starter/app/src/main/AndroidManifest.xml:21:9-35
	android:theme
		ADDED from /Users/teerifle/Desktop/kenny/android/android-kotlin-fundamentals-starter-apps/DessertClicker-Starter/app/src/main/AndroidManifest.xml:26:9-40
activity#com.example.android.dessertclicker.MainActivity
ADDED from /Users/teerifle/Desktop/kenny/android/android-kotlin-fundamentals-starter-apps/DessertClicker-Starter/app/src/main/AndroidManifest.xml:27:9-33:20
	android:name
		ADDED from /Users/teerifle/Desktop/kenny/android/android-kotlin-fundamentals-starter-apps/DessertClicker-Starter/app/src/main/AndroidManifest.xml:27:19-81
intent-filter#action:name:android.intent.action.MAIN+category:name:android.intent.category.LAUNCHER
ADDED from /Users/teerifle/Desktop/kenny/android/android-kotlin-fundamentals-starter-apps/DessertClicker-Starter/app/src/main/AndroidManifest.xml:28:13-32:29
action#android.intent.action.MAIN
ADDED from /Users/teerifle/Desktop/kenny/android/android-kotlin-fundamentals-starter-apps/DessertClicker-Starter/app/src/main/AndroidManifest.xml:29:17-69
	android:name
		ADDED from /Users/teerifle/Desktop/kenny/android/android-kotlin-fundamentals-starter-apps/DessertClicker-Starter/app/src/main/AndroidManifest.xml:29:25-66
category#android.intent.category.LAUNCHER
ADDED from /Users/teerifle/Desktop/kenny/android/android-kotlin-fundamentals-starter-apps/DessertClicker-Starter/app/src/main/AndroidManifest.xml:31:17-77
	android:name
		ADDED from /Users/teerifle/Desktop/kenny/android/android-kotlin-fundamentals-starter-apps/DessertClicker-Starter/app/src/main/AndroidManifest.xml:31:27-74
uses-sdk
INJECTED from /Users/teerifle/Desktop/kenny/android/android-kotlin-fundamentals-starter-apps/DessertClicker-Starter/app/src/main/AndroidManifest.xml reason: use-sdk injection requested
INJECTED from /Users/teerifle/Desktop/kenny/android/android-kotlin-fundamentals-starter-apps/DessertClicker-Starter/app/src/main/AndroidManifest.xml
INJECTED from /Users/teerifle/Desktop/kenny/android/android-kotlin-fundamentals-starter-apps/DessertClicker-Starter/app/src/main/AndroidManifest.xml
MERGED from [androidx.databinding:databinding-adapters:3.5.0] /Users/teerifle/.gradle/caches/transforms-2/files-2.1/0b274312cb4503747b07f053d78a07f0/databinding-adapters-3.5.0/AndroidManifest.xml:22:5-44
MERGED from [androidx.databinding:databinding-adapters:3.5.0] /Users/teerifle/.gradle/caches/transforms-2/files-2.1/0b274312cb4503747b07f053d78a07f0/databinding-adapters-3.5.0/AndroidManifest.xml:22:5-44
MERGED from [androidx.databinding:databinding-runtime:3.5.0] /Users/teerifle/.gradle/caches/transforms-2/files-2.1/3c7e82ee7e533b334e790ceea06e7a5f/databinding-runtime-3.5.0/AndroidManifest.xml:22:5-44
MERGED from [androidx.databinding:databinding-runtime:3.5.0] /Users/teerifle/.gradle/caches/transforms-2/files-2.1/3c7e82ee7e533b334e790ceea06e7a5f/databinding-runtime-3.5.0/AndroidManifest.xml:22:5-44
MERGED from [androidx.constraintlayout:constraintlayout:2.0.0-alpha2] /Users/teerifle/.gradle/caches/transforms-2/files-2.1/53aaa976d5272f870fc6b0e9b1ee7d23/constraintlayout-2.0.0-alpha2/AndroidManifest.xml:5:5-7:41
MERGED from [androidx.constraintlayout:constraintlayout:2.0.0-alpha2] /Users/teerifle/.gradle/caches/transforms-2/files-2.1/53aaa976d5272f870fc6b0e9b1ee7d23/constraintlayout-2.0.0-alpha2/AndroidManifest.xml:5:5-7:41
MERGED from [androidx.appcompat:appcompat:1.0.0] /Users/teerifle/.gradle/caches/transforms-2/files-2.1/3f4ae065ee31123b41c261c10f189923/appcompat-1.0.0/AndroidManifest.xml:20:5-44
MERGED from [androidx.appcompat:appcompat:1.0.0] /Users/teerifle/.gradle/caches/transforms-2/files-2.1/3f4ae065ee31123b41c261c10f189923/appcompat-1.0.0/AndroidManifest.xml:20:5-44
MERGED from [androidx.fragment:fragment:1.0.0] /Users/teerifle/.gradle/caches/transforms-2/files-2.1/66f1e158e031e3f7e5d634069b8077c5/fragment-1.0.0/AndroidManifest.xml:20:5-44
MERGED from [androidx.fragment:fragment:1.0.0] /Users/teerifle/.gradle/caches/transforms-2/files-2.1/66f1e158e031e3f7e5d634069b8077c5/fragment-1.0.0/AndroidManifest.xml:20:5-44
MERGED from [androidx.vectordrawable:vectordrawable-animated:1.0.0] /Users/teerifle/.gradle/caches/transforms-2/files-2.1/efbe69a8ba6a33b526734fa3c1d9ea84/vectordrawable-animated-1.0.0/AndroidManifest.xml:20:5-44
MERGED from [androidx.vectordrawable:vectordrawable-animated:1.0.0] /Users/teerifle/.gradle/caches/transforms-2/files-2.1/efbe69a8ba6a33b526734fa3c1d9ea84/vectordrawable-animated-1.0.0/AndroidManifest.xml:20:5-44
MERGED from [androidx.recyclerview:recyclerview:1.0.0-rc01] /Users/teerifle/.gradle/caches/transforms-2/files-2.1/c885dff16d6e1f0cf240a581bfeda89b/recyclerview-1.0.0-rc01/AndroidManifest.xml:20:5-44
MERGED from [androidx.recyclerview:recyclerview:1.0.0-rc01] /Users/teerifle/.gradle/caches/transforms-2/files-2.1/c885dff16d6e1f0cf240a581bfeda89b/recyclerview-1.0.0-rc01/AndroidManifest.xml:20:5-44
MERGED from [androidx.legacy:legacy-support-core-ui:1.0.0] /Users/teerifle/.gradle/caches/transforms-2/files-2.1/611fe6fb14b620fb45ec15e02cca9f44/legacy-support-core-ui-1.0.0/AndroidManifest.xml:20:5-44
MERGED from [androidx.legacy:legacy-support-core-ui:1.0.0] /Users/teerifle/.gradle/caches/transforms-2/files-2.1/611fe6fb14b620fb45ec15e02cca9f44/legacy-support-core-ui-1.0.0/AndroidManifest.xml:20:5-44
MERGED from [androidx.legacy:legacy-support-core-utils:1.0.0] /Users/teerifle/.gradle/caches/transforms-2/files-2.1/0200fe1a5c32e074dc192accde9940d0/legacy-support-core-utils-1.0.0/AndroidManifest.xml:20:5-44
MERGED from [androidx.legacy:legacy-support-core-utils:1.0.0] /Users/teerifle/.gradle/caches/transforms-2/files-2.1/0200fe1a5c32e074dc192accde9940d0/legacy-support-core-utils-1.0.0/AndroidManifest.xml:20:5-44
MERGED from [androidx.vectordrawable:vectordrawable:1.0.0] /Users/teerifle/.gradle/caches/transforms-2/files-2.1/53fd6d79f1f039dfeda5edd6630645b2/vectordrawable-1.0.0/AndroidManifest.xml:20:5-44
MERGED from [androidx.vectordrawable:vectordrawable:1.0.0] /Users/teerifle/.gradle/caches/transforms-2/files-2.1/53fd6d79f1f039dfeda5edd6630645b2/vectordrawable-1.0.0/AndroidManifest.xml:20:5-44
MERGED from [androidx.loader:loader:1.0.0] /Users/teerifle/.gradle/caches/transforms-2/files-2.1/f72268e600cc17800e60910ca3d2bd65/loader-1.0.0/AndroidManifest.xml:20:5-44
MERGED from [androidx.loader:loader:1.0.0] /Users/teerifle/.gradle/caches/transforms-2/files-2.1/f72268e600cc17800e60910ca3d2bd65/loader-1.0.0/AndroidManifest.xml:20:5-44
MERGED from [androidx.viewpager:viewpager:1.0.0] /Users/teerifle/.gradle/caches/transforms-2/files-2.1/1eee9a5234acb0d9def9aac10c7f3af9/viewpager-1.0.0/AndroidManifest.xml:20:5-44
MERGED from [androidx.viewpager:viewpager:1.0.0] /Users/teerifle/.gradle/caches/transforms-2/files-2.1/1eee9a5234acb0d9def9aac10c7f3af9/viewpager-1.0.0/AndroidManifest.xml:20:5-44
MERGED from [androidx.coordinatorlayout:coordinatorlayout:1.0.0] /Users/teerifle/.gradle/caches/transforms-2/files-2.1/28f750dfd2d0af88eba44adf90bcde05/coordinatorlayout-1.0.0/AndroidManifest.xml:20:5-44
MERGED from [androidx.coordinatorlayout:coordinatorlayout:1.0.0] /Users/teerifle/.gradle/caches/transforms-2/files-2.1/28f750dfd2d0af88eba44adf90bcde05/coordinatorlayout-1.0.0/AndroidManifest.xml:20:5-44
MERGED from [androidx.drawerlayout:drawerlayout:1.0.0] /Users/teerifle/.gradle/caches/transforms-2/files-2.1/7c0ef516cebd892c6cf7acbdb6e44f0c/drawerlayout-1.0.0/AndroidManifest.xml:20:5-44
MERGED from [androidx.drawerlayout:drawerlayout:1.0.0] /Users/teerifle/.gradle/caches/transforms-2/files-2.1/7c0ef516cebd892c6cf7acbdb6e44f0c/drawerlayout-1.0.0/AndroidManifest.xml:20:5-44
MERGED from [androidx.slidingpanelayout:slidingpanelayout:1.0.0] /Users/teerifle/.gradle/caches/transforms-2/files-2.1/279d580201ef799bf5af3dde439af07e/slidingpanelayout-1.0.0/AndroidManifest.xml:20:5-44
MERGED from [androidx.slidingpanelayout:slidingpanelayout:1.0.0] /Users/teerifle/.gradle/caches/transforms-2/files-2.1/279d580201ef799bf5af3dde439af07e/slidingpanelayout-1.0.0/AndroidManifest.xml:20:5-44
MERGED from [androidx.customview:customview:1.0.0] /Users/teerifle/.gradle/caches/transforms-2/files-2.1/3e0fe89101d18f5f11be922aaf11740f/customview-1.0.0/AndroidManifest.xml:20:5-44
MERGED from [androidx.customview:customview:1.0.0] /Users/teerifle/.gradle/caches/transforms-2/files-2.1/3e0fe89101d18f5f11be922aaf11740f/customview-1.0.0/AndroidManifest.xml:20:5-44
MERGED from [androidx.swiperefreshlayout:swiperefreshlayout:1.0.0] /Users/teerifle/.gradle/caches/transforms-2/files-2.1/d84aa3513a0a69fa0544e77f36fcdb30/swiperefreshlayout-1.0.0/AndroidManifest.xml:20:5-44
MERGED from [androidx.swiperefreshlayout:swiperefreshlayout:1.0.0] /Users/teerifle/.gradle/caches/transforms-2/files-2.1/d84aa3513a0a69fa0544e77f36fcdb30/swiperefreshlayout-1.0.0/AndroidManifest.xml:20:5-44
MERGED from [androidx.asynclayoutinflater:asynclayoutinflater:1.0.0] /Users/teerifle/.gradle/caches/transforms-2/files-2.1/3671a51d09c6edb4d6fc7517ffd6f2e8/asynclayoutinflater-1.0.0/AndroidManifest.xml:20:5-44
MERGED from [androidx.asynclayoutinflater:asynclayoutinflater:1.0.0] /Users/teerifle/.gradle/caches/transforms-2/files-2.1/3671a51d09c6edb4d6fc7517ffd6f2e8/asynclayoutinflater-1.0.0/AndroidManifest.xml:20:5-44
MERGED from [androidx.core:core:1.0.0] /Users/teerifle/.gradle/caches/transforms-2/files-2.1/45a69bab8db1875a48488dcfd567eca0/core-1.0.0/AndroidManifest.xml:20:5-44
MERGED from [androidx.core:core:1.0.0] /Users/teerifle/.gradle/caches/transforms-2/files-2.1/45a69bab8db1875a48488dcfd567eca0/core-1.0.0/AndroidManifest.xml:20:5-44
MERGED from [androidx.lifecycle:lifecycle-runtime:2.0.0] /Users/teerifle/.gradle/caches/transforms-2/files-2.1/1991dd480a20514c97a738230755be71/lifecycle-runtime-2.0.0/AndroidManifest.xml:20:5-44
MERGED from [androidx.lifecycle:lifecycle-runtime:2.0.0] /Users/teerifle/.gradle/caches/transforms-2/files-2.1/1991dd480a20514c97a738230755be71/lifecycle-runtime-2.0.0/AndroidManifest.xml:20:5-44
MERGED from [androidx.versionedparcelable:versionedparcelable:1.0.0] /Users/teerifle/.gradle/caches/transforms-2/files-2.1/eae1e1bf7b41c88eb39a59daeaddd1fa/versionedparcelable-1.0.0/AndroidManifest.xml:20:5-44
MERGED from [androidx.versionedparcelable:versionedparcelable:1.0.0] /Users/teerifle/.gradle/caches/transforms-2/files-2.1/eae1e1bf7b41c88eb39a59daeaddd1fa/versionedparcelable-1.0.0/AndroidManifest.xml:20:5-44
MERGED from [androidx.cursoradapter:cursoradapter:1.0.0] /Users/teerifle/.gradle/caches/transforms-2/files-2.1/ce52a52bbbff4a5f9106c07425002133/cursoradapter-1.0.0/AndroidManifest.xml:20:5-44
MERGED from [androidx.cursoradapter:cursoradapter:1.0.0] /Users/teerifle/.gradle/caches/transforms-2/files-2.1/ce52a52bbbff4a5f9106c07425002133/cursoradapter-1.0.0/AndroidManifest.xml:20:5-44
MERGED from [androidx.lifecycle:lifecycle-livedata:2.0.0] /Users/teerifle/.gradle/caches/transforms-2/files-2.1/47e97ba2f7d01befdf0f7bbb6dc3a177/lifecycle-livedata-2.0.0/AndroidManifest.xml:20:5-44
MERGED from [androidx.lifecycle:lifecycle-livedata:2.0.0] /Users/teerifle/.gradle/caches/transforms-2/files-2.1/47e97ba2f7d01befdf0f7bbb6dc3a177/lifecycle-livedata-2.0.0/AndroidManifest.xml:20:5-44
MERGED from [androidx.lifecycle:lifecycle-livedata-core:2.0.0] /Users/teerifle/.gradle/caches/transforms-2/files-2.1/6b021111af4124dd47658f28597f8e15/lifecycle-livedata-core-2.0.0/AndroidManifest.xml:20:5-44
MERGED from [androidx.lifecycle:lifecycle-livedata-core:2.0.0] /Users/teerifle/.gradle/caches/transforms-2/files-2.1/6b021111af4124dd47658f28597f8e15/lifecycle-livedata-core-2.0.0/AndroidManifest.xml:20:5-44
MERGED from [androidx.arch.core:core-runtime:2.0.0] /Users/teerifle/.gradle/caches/transforms-2/files-2.1/b5789c4585f4a680a573a11621b1e764/core-runtime-2.0.0/AndroidManifest.xml:20:5-44
MERGED from [androidx.arch.core:core-runtime:2.0.0] /Users/teerifle/.gradle/caches/transforms-2/files-2.1/b5789c4585f4a680a573a11621b1e764/core-runtime-2.0.0/AndroidManifest.xml:20:5-44
MERGED from [androidx.documentfile:documentfile:1.0.0] /Users/teerifle/.gradle/caches/transforms-2/files-2.1/08e5727ebd6e02f9ebac497d766f3908/documentfile-1.0.0/AndroidManifest.xml:20:5-44
MERGED from [androidx.documentfile:documentfile:1.0.0] /Users/teerifle/.gradle/caches/transforms-2/files-2.1/08e5727ebd6e02f9ebac497d766f3908/documentfile-1.0.0/AndroidManifest.xml:20:5-44
MERGED from [androidx.localbroadcastmanager:localbroadcastmanager:1.0.0] /Users/teerifle/.gradle/caches/transforms-2/files-2.1/f9ccba07f2d8cda138a5f81f0c75d7fb/localbroadcastmanager-1.0.0/AndroidManifest.xml:20:5-44
MERGED from [androidx.localbroadcastmanager:localbroadcastmanager:1.0.0] /Users/teerifle/.gradle/caches/transforms-2/files-2.1/f9ccba07f2d8cda138a5f81f0c75d7fb/localbroadcastmanager-1.0.0/AndroidManifest.xml:20:5-44
MERGED from [androidx.print:print:1.0.0] /Users/teerifle/.gradle/caches/transforms-2/files-2.1/9a1242e0c07e4512a7b7145af59ff477/print-1.0.0/AndroidManifest.xml:20:5-44
MERGED from [androidx.print:print:1.0.0] /Users/teerifle/.gradle/caches/transforms-2/files-2.1/9a1242e0c07e4512a7b7145af59ff477/print-1.0.0/AndroidManifest.xml:20:5-44
MERGED from [androidx.lifecycle:lifecycle-viewmodel:2.0.0] /Users/teerifle/.gradle/caches/transforms-2/files-2.1/e7a48ed8cc39e1addffc3283ebe70c3f/lifecycle-viewmodel-2.0.0/AndroidManifest.xml:20:5-44
MERGED from [androidx.lifecycle:lifecycle-viewmodel:2.0.0] /Users/teerifle/.gradle/caches/transforms-2/files-2.1/e7a48ed8cc39e1addffc3283ebe70c3f/lifecycle-viewmodel-2.0.0/AndroidManifest.xml:20:5-44
MERGED from [androidx.interpolator:interpolator:1.0.0] /Users/teerifle/.gradle/caches/transforms-2/files-2.1/df0c84d35d0843ea27b512781e435977/interpolator-1.0.0/AndroidManifest.xml:20:5-44
MERGED from [androidx.interpolator:interpolator:1.0.0] /Users/teerifle/.gradle/caches/transforms-2/files-2.1/df0c84d35d0843ea27b512781e435977/interpolator-1.0.0/AndroidManifest.xml:20:5-44
INJECTED from /Users/teerifle/Desktop/kenny/android/android-kotlin-fundamentals-starter-apps/DessertClicker-Starter/app/src/main/AndroidManifest.xml
INJECTED from /Users/teerifle/Desktop/kenny/android/android-kotlin-fundamentals-starter-apps/DessertClicker-Starter/app/src/main/AndroidManifest.xml
	android:targetSdkVersion
		INJECTED from /Users/teerifle/Desktop/kenny/android/android-kotlin-fundamentals-starter-apps/DessertClicker-Starter/app/src/main/AndroidManifest.xml
		ADDED from /Users/teerifle/Desktop/kenny/android/android-kotlin-fundamentals-starter-apps/DessertClicker-Starter/app/src/main/AndroidManifest.xml
		INJECTED from /Users/teerifle/Desktop/kenny/android/android-kotlin-fundamentals-starter-apps/DessertClicker-Starter/app/src/main/AndroidManifest.xml
	android:minSdkVersion
		INJECTED from /Users/teerifle/Desktop/kenny/android/android-kotlin-fundamentals-starter-apps/DessertClicker-Starter/app/src/main/AndroidManifest.xml
		ADDED from /Users/teerifle/Desktop/kenny/android/android-kotlin-fundamentals-starter-apps/DessertClicker-Starter/app/src/main/AndroidManifest.xml
		INJECTED from /Users/teerifle/Desktop/kenny/android/android-kotlin-fundamentals-starter-apps/DessertClicker-Starter/app/src/main/AndroidManifest.xml
